{
  "project_info": {
    "project_number": "78029143228",
    "firebase_url": "https://dev-challenge-411f6.firebaseio.com",
    "project_id": "dev-challenge-411f6",
    "storage_bucket": "dev-challenge-411f6.appspot.com"
  },
  "client": [
    {
      "client_info": {
        "mobilesdk_app_id": "1:78029143228:android:6c3ecc8f6d32bf1a",
        "android_client_info": {
          "package_name": "pl.base.firebase_engine"
        }
      },
      "oauth_client": [
        {
          "client_id": "78029143228-5thrsu2a9q7pju5qvfcvdp111mtuotid.apps.googleusercontent.com",
          "client_type": 3
        }
      ],
      "api_key": [
        {
          "current_key": "AIzaSyB4sH9VZPIewUwUoLGD9NExqNumrElLlFk"
        }
      ],
      "services": {
        "analytics_service": {
          "status": 1
        },
        "appinvite_service": {
          "status": 1,
          "other_platform_oauth_client": []
        },
        "ads_service": {
          "status": 2
        }
      }
    }
  ],
  "configuration_version": "1"
}